^C:\USERS\USER\DESKTOP\MDEV\LAB4\X64\RELEASE\LAB4.OBJ|C:\USERS\USER\DESKTOP\MDEV\LAB4\X64\RELEASE\LAB4.RES
/OUT:"C:\USERS\USER\DESKTOP\MDEV\LAB4\X64\RELEASE\LAB4.EXE" /NOLOGO KERNEL32.LIB USER32.LIB GDI32.LIB WINSPOOL.LIB COMDLG32.LIB ADVAPI32.LIB SHELL32.LIB OLE32.LIB OLEAUT32.LIB UUID.LIB ODBC32.LIB ODBCCP32.LIB /MANIFEST /MANIFESTUAC:"level='asInvoker' uiAccess='false'" /manifest:embed /DEBUG /PDB:"C:\USERS\USER\DESKTOP\MDEV\LAB4\X64\RELEASE\LAB4.PDB" /SUBSYSTEM:CONSOLE /OPT:REF /OPT:ICF /LTCG:incremental /LTCGOUT:"X64\RELEASE\LAB4.IOBJ" /TLBID:1 /DYNAMICBASE /NXCOMPAT /IMPLIB:"C:\USERS\USER\DESKTOP\MDEV\LAB4\X64\RELEASE\LAB4.LIB" /MACHINE:X64 X64\RELEASE\LAB4.RES
X64\RELEASE\LAB4.OBJ
