^C:\USERS\USER\DESKTOP\MDEV\LAB5\X64\DEBUG\LAB5.OBJ|C:\USERS\USER\DESKTOP\MDEV\LAB5\X64\DEBUG\LAB5.RES
C:\USERS\USER\DESKTOP\MDEV\LAB5\X64\DEBUG\LAB5.ILK
C:\USERS\USER\DESKTOP\MDEV\LAB5\X64\DEBUG\LAB5.EXE
C:\USERS\USER\DESKTOP\MDEV\LAB5\X64\DEBUG\LAB5.PDB
