﻿  Lab9.cpp
C:\Users\user\Desktop\mdev\Lab9\Lab9.cpp(60,26): warning C4244: 'initializing': conversion from '_Rep' to 'unsigned int', possible loss of data
          with
          [
              _Rep=__int64
          ]
  Lab9.vcxproj -> C:\Users\user\Desktop\mdev\Lab9\x64\Debug\Lab9.exe
