^C:\USERS\USER\DESKTOP\MDEV\LAB7\X64\RELEASE\LAB7.OBJ|C:\USERS\USER\DESKTOP\MDEV\LAB7\X64\RELEASE\LAB7.RES
C:\USERS\USER\DESKTOP\MDEV\LAB7\X64\RELEASE\LAB7.EXE
C:\USERS\USER\DESKTOP\MDEV\LAB7\X64\RELEASE\LAB7.PDB
