^C:\USERS\USER\DESKTOP\MDEV\LAB6\LAB6.CPP
C:\USERS\USER\DESKTOP\MDEV\LAB6\X64\DEBUG\VC143.PDB
C:\USERS\USER\DESKTOP\MDEV\LAB6\X64\DEBUG\VC143.IDB
C:\USERS\USER\DESKTOP\MDEV\LAB6\X64\DEBUG\LAB6.OBJ
