^C:\USERS\USER\DESKTOP\MDEV\LAB6\X64\DEBUG\LAB6.OBJ
C:\USERS\USER\DESKTOP\MDEV\LAB6\X64\DEBUG\LAB6.ILK
C:\USERS\USER\DESKTOP\MDEV\LAB6\X64\DEBUG\LAB6.EXE
C:\USERS\USER\DESKTOP\MDEV\LAB6\X64\DEBUG\LAB6.PDB
