^C:\USERS\USER\DESKTOP\MDEV\LAB13\X64\DEBUG\LAB13.OBJ
C:\USERS\USER\DESKTOP\MDEV\LAB13\X64\DEBUG\LAB13.ILK
C:\USERS\USER\DESKTOP\MDEV\LAB13\X64\DEBUG\LAB13.EXE
C:\USERS\USER\DESKTOP\MDEV\LAB13\X64\DEBUG\LAB13.PDB
