^C:\USERS\USER\DESKTOP\MDEV\LAB72\X64\DEBUG\LAB72.OBJ
C:\USERS\USER\DESKTOP\MDEV\LAB72\X64\DEBUG\LAB72.ILK
C:\USERS\USER\DESKTOP\MDEV\LAB72\X64\DEBUG\LAB72.EXE
C:\USERS\USER\DESKTOP\MDEV\LAB72\X64\DEBUG\LAB72.PDB
